{
  "development":{
    "appName":"kanmashvim",
    "masterApi":{
      "baseURL":"http://kanmashvim.co.il/parse",
      "headers":{
        "X-Parse-Application-Id":"kanmashvimAppId1985",
        "X-Parse-Master-Key":"masterKEY1985!@",
        "Content-Type":"application/json"
      }
    },
    "restApi":{
      "baseURL":"https://kanmashvim.co.il/parse",
      "headers":{
        "X-Parse-Application-Id":"kanmashvimAppId1985",
        "Content-Type":"application/json",
        "X-Parse-Master-Key":"masterKEY1985!@"
      }
    },
    "production":{
      "baseURL":"http://kanmashvim.co.il/parse",
      "headers":{
        "X-Parse-Application-Id":"kanmashvimAppId1985",
        "Content-Type":"application/json",
        "X-Parse-Master-Key":"masterKEY1985!@"
      }
    }
  }
}
